^D:\GC2A06\C++\CPP_KADAI\課題4\X64\DEBUG\MAIN.OBJ|D:\GC2A06\C++\CPP_KADAI\課題4\X64\DEBUG\SAMPLE.OBJ
D:\GC2A06\C++\CPP_KADAI\X64\DEBUG\課題4.ILK
D:\GC2A06\C++\CPP_KADAI\X64\DEBUG\課題4.EXE
D:\GC2A06\C++\CPP_KADAI\X64\DEBUG\課題4.PDB
