^D:\GC2A06\C++\CPP_KADAI\課題4\X64\DEBUG\MAIN.OBJ|D:\GC2A06\C++\CPP_KADAI\課題4\X64\DEBUG\SAMPLE.OBJ
/OUT:"D:\GC2A06\C++\CPP_KADAI\X64\DEBUG\課題4.EXE" /INCREMENTAL /NOLOGO KERNEL32.LIB USER32.LIB GDI32.LIB WINSPOOL.LIB COMDLG32.LIB ADVAPI32.LIB SHELL32.LIB OLE32.LIB OLEAUT32.LIB UUID.LIB ODBC32.LIB ODBCCP32.LIB /MANIFEST /MANIFESTUAC:"level='asInvoker' uiAccess='false'" /manifest:embed /DEBUG:FASTLINK /PDB:"D:\GC2A06\C++\CPP_KADAI\X64\DEBUG\課題4.PDB" /SUBSYSTEM:CONSOLE /TLBID:1 /DYNAMICBASE /NXCOMPAT /IMPLIB:"D:\GC2A06\C++\CPP_KADAI\X64\DEBUG\課題4.LIB" /MACHINE:X64 X64\DEBUG\MAIN.OBJ
X64\DEBUG\SAMPLE.OBJ
