^D:\GC2A06大芦\C++\CPP_KADAI\課題13\CALCLATION.CPP|D:\GC2A06大芦\C++\CPP_KADAI\課題13\MAIN.CPP
D:\GC2A06大芦\C++\CPP_KADAI\課題13\DEBUG\VC142.PDB
D:\GC2A06大芦\C++\CPP_KADAI\課題13\DEBUG\VC142.IDB
D:\GC2A06大芦\C++\CPP_KADAI\課題13\DEBUG\CALCLATION.OBJ
^D:\GC2A06大芦\C++\CPP_KADAI\課題13\CALCLATION.CPP
D:\GC2A06大芦\C++\CPP_KADAI\課題13\DEBUG\CALCLATION.OBJ
^D:\GC2A06大芦\C++\CPP_KADAI\課題13\CALCLUATION.CPP|D:\GC2A06大芦\C++\CPP_KADAI\課題13\MAIN.CPP
D:\GC2A06大芦\C++\CPP_KADAI\課題13\DEBUG\VC142.PDB
D:\GC2A06大芦\C++\CPP_KADAI\課題13\DEBUG\VC142.IDB
D:\GC2A06大芦\C++\CPP_KADAI\課題13\DEBUG\MAIN.OBJ
D:\GC2A06大芦\C++\CPP_KADAI\課題13\DEBUG\CALCLUATION.OBJ
^D:\GC2A06大芦\C++\CPP_KADAI\課題13\CALCLUATION.CPP
D:\GC2A06大芦\C++\CPP_KADAI\課題13\DEBUG\VC142.PDB
^D:\GC2A06大芦\C++\CPP_KADAI\課題13\MAIN.CPP
D:\GC2A06大芦\C++\CPP_KADAI\課題13\DEBUG\VC142.PDB
