^D:\GC2A06大芦\C++\CPP_KADAI\課題13\DEBUG\CALCLUATION.OBJ|D:\GC2A06大芦\C++\CPP_KADAI\課題13\DEBUG\MAIN.OBJ
D:\GC2A06大芦\C++\CPP_KADAI\DEBUG\課題13.ILK
D:\GC2A06大芦\C++\CPP_KADAI\DEBUG\課題13.EXE
D:\GC2A06大芦\C++\CPP_KADAI\DEBUG\課題13.PDB
