^D:\GC2A06大芦\C++\CPP_KADAI\課題１６\DEBUG\FIGURE.OBJ|D:\GC2A06大芦\C++\CPP_KADAI\課題１６\DEBUG\MAIN.OBJ|D:\GC2A06大芦\C++\CPP_KADAI\課題１６\DEBUG\SQUARE.OBJ|D:\GC2A06大芦\C++\CPP_KADAI\課題１６\DEBUG\TRIANGLE.OBJ
D:\GC2A06大芦\C++\CPP_KADAI\DEBUG\課題１６.EXE
D:\GC2A06大芦\C++\CPP_KADAI\DEBUG\課題１６.ILK
D:\GC2A06大芦\C++\CPP_KADAI\DEBUG\課題１６.PDB
